…
Sentiment analysis
========================================================


```r
bingsent <- get_sentiments("bing")
bingsent
```

```
# A tibble: 6,786 x 2
   word        sentiment
   <chr>       <chr>    
 1 2-faces     negative 
 2 abnormal    negative 
 3 abolish     negative 
 4 abominable  negative 
 5 abominably  negative 
 6 abominate   negative 
 7 abomination negative 
 8 abort       negative 
 9 aborted     negative 
10 aborts      negative 
# … with 6,776 more rows
```
…
Sentiment dictionaries
========================================================
* `AFINN` from [Finn Årup Nielsen](http://www2.imm.dtu.dk/pubdb/views/publication_details.php?id=6010),
* `bing` from [Bing Liu and collaborators](https://www.cs.uic.edu/~liub/FBS/sentiment-analysis.html), and
* `nrc` from [Saif Mohammad and Peter Turney](http://saifmohammad.com/WebPages/NRC-Emotion-Lexicon.htm)

Getting sentiment dictionaries
========================================================

```r
get_sentiments("afinn")
```

```
# A tibble: 2,477 x 2
   word       value
   <chr>      <dbl>
 1 abandon       -2
 2 abandoned     -2
 3 abandons      -2
 4 abducted      -2
 5 abduction     -2
 6 abductions    -2
 7 abhor         -3
 8 abhorred      -3
 9 abhorrent     -3
10 abhors        -3
# … with 2,467 more rows
```

Getting sentiment dictionaries
========================================================

```r
get_sentiments("nrc")
```

```
# A tibble: 13,901 x 2
   word        sentiment
   <chr>       <chr>    
 1 abacus      trust    
 2 abandon     fear     
 3 abandon     negative 
 4 abandon     sadness  
 5 abandoned   anger    
 6 abandoned   fear     
 7 abandoned   negative 
 8 abandoned   sadness  
 9 abandonment anger    
10 abandonment fear     
# … with 13,891 more rows
```

Getting sentiment dictionaries
========================================================

```r
get_sentiments("bing")
```

```
# A tibble: 6,786 x 2
   word        sentiment
   <chr>       <chr>    
 1 2-faces     negative 
 2 abnormal    negative 
 3 abolish     negative 
 4 abominable  negative 
 5 abominably  negative 
 6 abominate   negative 
 7 abomination negative 
 8 abort       negative 
 9 aborted     negative 
10 aborts      negative 
# … with 6,776 more rows
```
…
tidy_tweets <- tidy_tweets %>%
    filter(!word %in% stop_words$word)
```

Inspect
========================================================


```r
tidy_tweets %>%
  count(word, sort = TRUE)
```

```
# A tibble: 240,027 x 2
   word             n
   <chr>        <int>
 1 https       214857
 2 t.co        212579
 3 coronavirus  30282
 4 rt           22357
 5 uk            7568
 6 lockdown      6527
 7 home          5245
 8 mum           4509
 9 people        4506
10 nhs           4195
# … with 240,017 more rows
```
…
